<svg id="dashboard" xmlns="http://www.w3.org/2000/svg" width="26.68" height="26.68" viewBox="0 0 26.68 26.68">
  <path id="Path_2004" data-name="Path 2004" d="M10.283,8.893H1.945A1.947,1.947,0,0,1,0,6.948v-5A1.947,1.947,0,0,1,1.945,0h8.337a1.947,1.947,0,0,1,1.946,1.945v5A1.948,1.948,0,0,1,10.283,8.893ZM1.945,1.668a.278.278,0,0,0-.278.278v5a.278.278,0,0,0,.278.278h8.337a.278.278,0,0,0,.278-.278v-5a.278.278,0,0,0-.278-.278Zm0,0" transform="translate(0 0)" fill="#676767"/>
  <path id="Path_2005" data-name="Path 2005" d="M10.283,228.9H1.945A1.947,1.947,0,0,1,0,226.95V215.278a1.947,1.947,0,0,1,1.945-1.946h8.337a1.948,1.948,0,0,1,1.946,1.946V226.95A1.947,1.947,0,0,1,10.283,228.9ZM1.945,215a.278.278,0,0,0-.278.278V226.95a.278.278,0,0,0,.278.278h8.337a.278.278,0,0,0,.278-.278V215.278a.278.278,0,0,0-.278-.278Zm0,0" transform="translate(0 -202.216)" fill="#676767"/>
  <path id="Path_2006" data-name="Path 2006" d="M287.615,350.225h-8.337a1.947,1.947,0,0,1-1.945-1.945v-5a1.948,1.948,0,0,1,1.945-1.946h8.337a1.947,1.947,0,0,1,1.945,1.946v5A1.947,1.947,0,0,1,287.615,350.225ZM279.278,343a.278.278,0,0,0-.278.278v5a.278.278,0,0,0,.278.278h8.337a.278.278,0,0,0,.278-.278v-5a.278.278,0,0,0-.278-.278Zm0,0" transform="translate(-262.881 -323.546)" fill="#676767"/>
  <path id="Path_2007" data-name="Path 2007" d="M287.615,15.563h-8.337a1.948,1.948,0,0,1-1.945-1.946V1.945A1.947,1.947,0,0,1,279.278,0h8.337a1.947,1.947,0,0,1,1.945,1.945V13.618A1.947,1.947,0,0,1,287.615,15.563Zm-8.337-13.9a.278.278,0,0,0-.278.278V13.618a.278.278,0,0,0,.278.278h8.337a.278.278,0,0,0,.278-.278V1.945a.278.278,0,0,0-.278-.278Zm0,0" transform="translate(-262.881 0)" fill="#676767"/>
</svg>
