<svg xmlns="http://www.w3.org/2000/svg" width="30" height="30" viewBox="0 0 30 30">
  <g id="_2" data-name="2" transform="translate(-296 -584)">
    <path id="Path_18" data-name="Path 18" d="M9163.678,0h2.66A13.708,13.708,0,0,1,9180,13.677v2.661A13.7,13.7,0,0,1,9166.338,30h-2.66A13.708,13.708,0,0,1,9150,16.338V13.677A13.722,13.722,0,0,1,9163.678,0Z" transform="translate(-8854 584)" fill="#61a8de" fill-rule="evenodd"/>
    <path id="Path_29" data-name="Path 29" d="M9739.029,638.325l-12.758,4.961a.467.467,0,0,0,.035.886l3.242.957,1.205,3.845a.567.567,0,0,0,.939.213l1.665-1.7,3.3,2.41a.7.7,0,0,0,1.081-.408l2.179-10.419A.657.657,0,0,0,9739.029,638.325Zm-1.6,2.3-5.936,5.245a.423.423,0,0,0-.105.195l-.23,2.038c0,.071-.089.071-.125,0l-.938-3.012a.335.335,0,0,1,.142-.372l7-4.341A.158.158,0,0,1,9737.434,640.629Z" transform="translate(-9421.97 -45.277)" fill="#fff" fill-rule="evenodd"/>
  </g>
</svg>
