<svg xmlns="http://www.w3.org/2000/svg" width="30" height="30" viewBox="0 0 30 30">
  <g id="_6" data-name="6" transform="translate(0)">
    <path id="Path_243" data-name="Path 243" d="M3047.662,8445h2.661A13.708,13.708,0,0,1,3064,8458.661v2.662A13.722,13.722,0,0,1,3050.323,8475h-2.661A13.709,13.709,0,0,1,3034,8461.323v-2.662A13.7,13.7,0,0,1,3047.662,8445Z" transform="translate(-3034 -8445)" fill="#e12c92" fill-rule="evenodd"/>
    <g id="share" transform="translate(8.532 8.087)">
      <path id="Path_2122" data-name="Path 2122" d="M318.391,17.861A1.861,1.861,0,1,1,316.529,16,1.861,1.861,0,0,1,318.391,17.861Zm0,0" transform="translate(-306.22 -15.57)" fill="#fff"/>
      <path id="Path_2123" data-name="Path 2123" d="M300.959,4.582a2.291,2.291,0,1,1,2.291-2.291A2.293,2.293,0,0,1,300.959,4.582Zm0-3.723a1.432,1.432,0,1,0,1.432,1.432A1.433,1.433,0,0,0,300.959.859Zm0,0" transform="translate(-290.65 0)" fill="#fff"/>
      <path id="Path_2124" data-name="Path 2124" d="M318.391,359.194a1.861,1.861,0,1,1-1.861-1.861A1.861,1.861,0,0,1,318.391,359.194Zm0,0" transform="translate(-306.22 -347.739)" fill="#fff"/>
      <path id="Path_2125" data-name="Path 2125" d="M300.959,345.914a2.291,2.291,0,1,1,2.291-2.291A2.293,2.293,0,0,1,300.959,345.914Zm0-3.723a1.432,1.432,0,1,0,1.432,1.432A1.433,1.433,0,0,0,300.959,342.191Zm0,0" transform="translate(-290.65 -332.169)" fill="#fff"/>
      <path id="Path_2126" data-name="Path 2126" d="M19.723,188.529a1.861,1.861,0,1,1-1.861-1.861A1.861,1.861,0,0,1,19.723,188.529Zm0,0" transform="translate(-15.571 -181.657)" fill="#fff"/>
      <path id="Path_2127" data-name="Path 2127" d="M2.291,175.25a2.291,2.291,0,1,1,2.291-2.291,2.293,2.293,0,0,1-2.291,2.291Zm0-3.723a1.432,1.432,0,1,0,1.432,1.432,1.433,1.433,0,0,0-1.432-1.432Zm0,0" transform="translate(0 -166.086)" fill="#fff"/>
      <path id="Path_2128" data-name="Path 2128" d="M114.922,94.39a.573.573,0,0,1-.284-1.071l5.314-3.03a.573.573,0,1,1,.567,1l-5.314,3.03a.569.569,0,0,1-.283.075Zm0,0" transform="translate(-111.279 -87.793)" fill="#fff"/>
      <path id="Path_2129" data-name="Path 2129" d="M120.258,270.394a.569.569,0,0,1-.283-.075l-5.314-3.03a.573.573,0,0,1,.567-1l5.314,3.03a.573.573,0,0,1-.284,1.07Zm0,0" transform="translate(-111.301 -259.072)" fill="#fff"/>
    </g>
  </g>
</svg>
