<svg xmlns="http://www.w3.org/2000/svg" width="16.875" height="18" viewBox="0 0 16.875 18">
  <path id="exit" d="M13.5,11.25V9H7.875V6.75H13.5V4.5l3.375,3.375Zm-1.125-1.125v4.5H6.75V18L0,14.625V0H12.375V5.625H11.25v-4.5h-9l4.5,2.25V13.5h4.5V10.125Z" fill="#455769"/>
</svg>
