<svg xmlns="http://www.w3.org/2000/svg" width="12.154" height="19.446" viewBox="0 0 12.154 19.446">
  <path id="bookmark2" d="M16.938,19.446l-4.861-6.684L7.215,19.446A1.216,1.216,0,0,1,6,18.23V1.215A1.216,1.216,0,0,1,7.215,0h9.723a1.216,1.216,0,0,1,1.215,1.215V18.23A1.216,1.216,0,0,1,16.938,19.446Zm-.3-18.23H7.519a.3.3,0,1,0,0,.608h9.115a.3.3,0,0,0,0-.608Z" transform="translate(-6)" fill="#455769"/>
</svg>
