<svg id="dashboard" xmlns="http://www.w3.org/2000/svg" width="34.48" height="34.48" viewBox="0 0 34.48 34.48">
  <path id="Path_2004" data-name="Path 2004" d="M13.289,11.494H2.514A2.517,2.517,0,0,1,0,8.979V2.514A2.517,2.517,0,0,1,2.514,0H13.289A2.517,2.517,0,0,1,15.8,2.514V8.979A2.517,2.517,0,0,1,13.289,11.494ZM2.514,2.155a.359.359,0,0,0-.359.359V8.979a.359.359,0,0,0,.359.359H13.289a.359.359,0,0,0,.359-.359V2.514a.359.359,0,0,0-.359-.359Zm0,0" transform="translate(0 0)" fill="#f27376"/>
  <path id="Path_2005" data-name="Path 2005" d="M13.289,233.446H2.514A2.517,2.517,0,0,1,0,230.931V215.846a2.517,2.517,0,0,1,2.514-2.514H13.289a2.517,2.517,0,0,1,2.514,2.514v15.085A2.517,2.517,0,0,1,13.289,233.446ZM2.514,215.487a.359.359,0,0,0-.359.359v15.085a.359.359,0,0,0,.359.359H13.289a.359.359,0,0,0,.359-.359V215.846a.359.359,0,0,0-.359-.359Zm0,0" transform="translate(0 -198.965)" fill="#f27376"/>
  <path id="Path_2006" data-name="Path 2006" d="M290.621,352.826H279.846a2.517,2.517,0,0,1-2.514-2.514v-6.465a2.517,2.517,0,0,1,2.514-2.514h10.775a2.517,2.517,0,0,1,2.514,2.514v6.465A2.517,2.517,0,0,1,290.621,352.826Zm-10.775-9.338a.359.359,0,0,0-.359.359v6.465a.359.359,0,0,0,.359.359h10.775a.359.359,0,0,0,.359-.359v-6.465a.359.359,0,0,0-.359-.359Zm0,0" transform="translate(-258.655 -318.345)" fill="#f27376"/>
  <path id="Path_2007" data-name="Path 2007" d="M290.621,20.114H279.846a2.517,2.517,0,0,1-2.514-2.514V2.514A2.517,2.517,0,0,1,279.846,0h10.775a2.517,2.517,0,0,1,2.514,2.514V17.6A2.517,2.517,0,0,1,290.621,20.114ZM279.846,2.155a.359.359,0,0,0-.359.359V17.6a.359.359,0,0,0,.359.359h10.775a.359.359,0,0,0,.359-.359V2.514a.359.359,0,0,0-.359-.359Zm0,0" transform="translate(-258.655 0)" fill="#f27376"/>
</svg>
