<svg xmlns="http://www.w3.org/2000/svg" width="30" height="30" viewBox="0 0 30 30">
  <g id="_1" data-name="1" transform="translate(0)">
    <path id="Path_20" data-name="Path 20" d="M6086.662,2827h2.677A13.7,13.7,0,0,1,6103,2840.67v2.66a13.7,13.7,0,0,1-13.662,13.67h-2.677A13.7,13.7,0,0,1,6073,2843.33v-2.66A13.7,13.7,0,0,1,6086.662,2827Z" transform="translate(-6073 -2827)" fill="#1bd741" fill-rule="evenodd"/>
    <path id="Path_26" data-name="Path 26" d="M6635,3339.543l1.017-3.62a7.235,7.235,0,1,1,2.711,2.665Zm3.914-2.28.231.138a6.029,6.029,0,1,0-1.941-1.9l.154.231-.585,2.08Z" transform="translate(-6627.359 -3317.366)" fill="#fff" fill-rule="evenodd"/>
    <path id="Path_27" data-name="Path 27" d="M6870.389,3575.03l-.478-.031a.629.629,0,0,0-.4.139,2.227,2.227,0,0,0-.709,1.079,3.238,3.238,0,0,0,.771,2.573,7.576,7.576,0,0,0,4.113,2.989,1.992,1.992,0,0,0,1.695-.216,1.518,1.518,0,0,0,.662-.955l.077-.354a.294.294,0,0,0-.138-.278l-1.587-.724a.264.264,0,0,0-.309.077l-.616.8a.168.168,0,0,1-.2.062,4.915,4.915,0,0,1-2.65-2.265.192.192,0,0,1,.031-.2l.585-.693a.242.242,0,0,0,.046-.246l-.693-1.6A.212.212,0,0,0,6870.389,3575.03Z" transform="translate(-6857.544 -3563.353)" fill="#fff" fill-rule="evenodd"/>
  </g>
</svg>
